<?xml version="1.0" standalone="no"?>
<!DOCTYPE svg PUBLIC "-//W3C//DTD SVG 1.1//EN" "http://www.w3.org/Graphics/SVG/1.1/DTD/svg11.dtd" >
<svg xmlns="http://www.w3.org/2000/svg">
<metadata>Generated by IcoMoon</metadata>
<defs>
<font id="MagnifyGlass" horiz-adv-x="1024">
<font-face units-per-em="1024" ascent="960" descent="-64" />
<missing-glyph horiz-adv-x="1024" />
<glyph unicode="&#x20;" d="" horiz-adv-x="512" />
<glyph unicode="&#xe600;" d="M415.84 945.015c-217.307 0-395.235-177.929-395.235-395.235 0-217.307 177.929-395.235 395.235-395.235 77.059 0 148.816 22.307 209.793 60.877l251.002-246.32c117.035-25.924 106.77 85.228 106.77 85.228l-229.461 292.212c36.082 59.566 57.131 128.916 57.131 203.237 0 217.307-177.929 395.235-395.235 395.235zM415.84 775.495c125.788 0 225.715-99.927 225.715-225.715s-99.927-225.715-225.715-225.715c-125.788 0-226.651 99.927-226.651 225.715 0 125.788 100.864 225.715 226.651 225.715z" horiz-adv-x="1015" />
</font></defs></svg>